lab2/run046/vpr_arch/and2/MIN_ROUTE_CHAN_WIDTH/and2_formal.vcd
$date
	Mon Sep 30 17:03:41 2024
$end
$version
	Icarus Verilog
$end
$timescale
	1ps
$end
$scope module and2_autocheck_top_tb $end
$var wire 1 ! __config_all_done__ $end
$var wire 1 " __op_clock__ $end
$var wire 1 # __prog_clock__ $end
$var wire 1 $ clk $end
$var wire 64 % gfpga_pad_GPIO_PAD [0:63] $end
$var wire 1 & pReset $end
$var wire 1 ' prog_clk $end
$var wire 1 ( reset $end
$var wire 1 ) set $end
$var wire 1 * ccff_tail $end
$var wire 1 + c_fpga $end
$var wire 1 , c_benchmark $end
$var reg 1 - __config_done__ $end
$var reg 1 . __greset__ $end
$var reg 1 / __gset__ $end
$var reg 1 0 __op_clock___reg__ $end
$var reg 1 1 __prog_clock___reg__ $end
$var reg 1 2 __prog_reset__ $end
$var reg 1 3 __prog_set_ $end
$var reg 1 4 a_shared_input $end
$var reg 1 5 b_shared_input $end
$var reg 14 6 bit_index [13:0] $end
$var reg 1 7 c_flag $end
$var reg 1 8 ccff_head $end
$var reg 14 9 ibit [13:0] $end
$var reg 1 : sim_start $end
$var reg 1 ; skip_bits $end
$var integer 32 < nb_error [31:0] $end
$upscope $end
$enddefinitions $end
#0
$dumpvars
b1 <
0;
1:
b1011001101011 9
08
07
b0 6
05
14
13
12
01
00
0/
1.
0-
0,
1+
0*
0)
1(
0'
1&
bx0x001x0x0x0xx00x01xxxxxxxxx0x0x0000xxxxx00000xxxxxx0x0000xx %
0$
0#
0"
0!
$end
#1667
11
#3333
1'
1#
03
0&
02
#3334
b1 6
0'
0#
01
#5001
1'
1#
11
#6668
b10 6
0'
0#
01
#8335
1'
1#
11
#10002
b11 6
0'
0#
01
#11669
1'
1#
11
#13336
b100 6
0'
0#
01
#15003
1'
1#
11
#16670
b101 6
0'
0#
01
#18337
1'
1#
11
#20004
b110 6
0'
0#
01
#21671
1'
1#
11
#23338
b111 6
0'
0#
01
#25005
1'
1#
11
#26672
b1000 6
0'
0#
01
#28339
1'
1#
11
#30006
b1001 6
0'
0#
01
#31673
1'
1#
11
#33340
b1010 6
0'
0#
01
#35007
1'
1#
11
#36674
b1011 6
0'
0#
01
#38341
1'
1#
11
#40008
b1100 6
0'
0#
01
#41675
1'
1#
11
#43342
b1101 6
0'
0#
01
#45009
1'
1#
11
#46676
b1110 6
0'
0#
01
#48343
1'
1#
11
#50010
b1111 6
0'
0#
01
#51677
1'
1#
11
#53344
b10000 6
0'
0#
01
#55011
1'
1#
11
#56678
b10001 6
0'
0#
01
#58345
1'
1#
11
#60012
b10010 6
0'
0#
01
#61679
1'
1#
11
#63346
b10011 6
0'
0#
01
#65013
1'
1#
11
#66680
b10100 6
0'
0#
01
#68347
1'
1#
11
#70014
b10101 6
0'
0#
01
#71681
1'
1#
11
#73348
b10110 6
0'
0#
01
#75015
1'
1#
11
#76682
b10111 6
0'
0#
01
#78349
1'
1#
11
#80016
b11000 6
0'
0#
01
#81683
1'
1#
11
#83350
b11001 6
0'
0#
01
#85017
1'
1#
11
#86684
b11010 6
0'
0#
01
#88351
1'
1#
11
#90018
b11011 6
0'
0#
01
#91685
1'
1#
11
#93352
b11100 6
0'
0#
01
#95019
1'
1#
11
#96686
b11101 6
0'
0#
01
#98353
1'
1#
11
#100020
b11110 6
0'
0#
01
#101687
1'
1#
11
#103354
b11111 6
0'
0#
01
#105021
1'
1#
11
#106688
b100000 6
0'
0#
01
#108355
1'
1#
11
#110022
b100001 6
0'
0#
01
#111689
1'
1#
11
#113356
b100010 6
0'
0#
01
#115023
1'
1#
11
#116690
b100011 6
0'
0#
01
#118357
1'
1#
11
#120024
b100100 6
0'
0#
01
#121691
1'
1#
11
#123358
b100101 6
0'
0#
01
#125025
1'
1#
11
#126692
b100110 6
0'
0#
01
#128359
1'
1#
11
#130026
b100111 6
0'
0#
01
#131693
1'
1#
11
#133360
b101000 6
0'
0#
01
#135027
1'
1#
11
#136694
b101001 6
0'
0#
01
#138361
1'
1#
11
#140028
b101010 6
0'
0#
01
#141695
1'
1#
11
#143362
b101011 6
0'
0#
01
#145029
1'
1#
11
#146696
b101100 6
0'
0#
01
#148363
1'
1#
11
#150030
b101101 6
0'
0#
01
#151697
1'
1#
11
#153364
b101110 6
0'
0#
01
#155031
1'
1#
11
#156698
b101111 6
0'
0#
01
#158365
1'
1#
11
#160032
b110000 6
0'
0#
01
#161699
1'
1#
11
#163366
b110001 6
0'
0#
01
#165033
1'
1#
11
#166700
b110010 6
0'
0#
01
#168367
1'
1#
11
#170034
b110011 6
0'
0#
01
#171701
1'
1#
11
#173368
b110100 6
0'
0#
01
#175035
1'
1#
11
#176702
b110101 6
0'
0#
01
#178369
1'
1#
11
#180036
b110110 6
0'
0#
01
#181703
1'
1#
11
#183370
b110111 6
0'
0#
01
#185037
1'
1#
11
#186704
b111000 6
0'
0#
01
#188371
1'
1#
11
#190038
b111001 6
0'
0#
01
#191705
1'
1#
11
#193372
b111010 6
0'
0#
01
#195039
1'
1#
11
#196706
b111011 6
0'
0#
01
#198373
1'
1#
11
#200040
b111100 6
0'
0#
01
#201707
1'
1#
11
#203374
b111101 6
0'
0#
01
#205041
1'
1#
11
#206708
b111110 6
0'
0#
01
#208375
1'
1#
11
#210042
b111111 6
0'
0#
01
#211709
1'
1#
11
#213376
b1000000 6
0'
0#
01
#215043
1'
1#
11
#216710
b1000001 6
0'
0#
01
#218377
1'
1#
11
#220044
b1000010 6
0'
0#
01
#221711
1'
1#
11
#223378
b1000011 6
0'
0#
01
#225045
1'
1#
11
#226712
b1000100 6
0'
0#
01
#228379
1'
1#
11
#230046
b1000101 6
0'
0#
01
#231713
1'
1#
11
#233380
b1000110 6
0'
0#
01
#235047
1'
1#
11
#236714
b1000111 6
0'
0#
01
#238381
1'
1#
11
#240048
b1001000 6
0'
0#
01
#241715
1'
1#
11
#243382
b1001001 6
0'
0#
01
#245049
1'
1#
11
#246716
b1001010 6
0'
0#
01
#248383
1'
1#
11
#250050
b1001011 6
0'
0#
01
#251717
1'
1#
11
#253384
b1001100 6
0'
0#
01
#255051
1'
1#
11
#256718
b1001101 6
0'
0#
01
#258385
1'
1#
11
#260052
b1001110 6
0'
0#
01
#261719
1'
1#
11
#263386
b1001111 6
0'
0#
01
#265053
1'
1#
11
#266720
b1010000 6
0'
0#
01
#268387
1'
1#
11
#270054
b1010001 6
0'
0#
01
#271721
1'
1#
11
#273388
b1010010 6
0'
0#
01
#275055
1'
1#
11
#276722
b1010011 6
0'
0#
01
#278389
1'
1#
11
#280056
b1010100 6
0'
0#
01
#281723
1'
1#
11
#283390
b1010101 6
0'
0#
01
#285057
1'
1#
11
#286724
b1010110 6
0'
0#
01
#288391
1'
1#
11
#290058
b1010111 6
0'
0#
01
#291725
1'
1#
11
#293392
b1011000 6
0'
0#
01
#295059
1'
1#
11
#296726
b1011001 6
0'
0#
01
#298393
1'
1#
11
#300060
b1011010 6
0'
0#
01
#301727
1'
1#
11
#303394
b1011011 6
0'
0#
01
#305061
1'
1#
11
#306728
b1011100 6
0'
0#
01
#308395
1'
1#
11
#310062
b1011101 6
0'
0#
01
#311729
1'
1#
11
#313396
b1011110 6
0'
0#
01
#315063
1'
1#
11
#316730
b1011111 6
0'
0#
01
#318397
1'
1#
11
#320064
b1100000 6
0'
0#
01
#321731
1'
1#
11
#323398
b1100001 6
0'
0#
01
#325065
1'
1#
11
#326732
b1100010 6
0'
0#
01
#328399
1'
1#
11
#330066
b1100011 6
0'
0#
01
#331733
1'
1#
11
#333400
b1100100 6
0'
0#
01
#335067
1'
1#
11
#336734
b1100101 6
0'
0#
01
#338401
1'
1#
11
#340068
b1100110 6
0'
0#
01
#341735
1'
1#
11
#343402
b1100111 6
0'
0#
01
#345069
1'
1#
11
#346736
b1101000 6
0'
0#
01
#348403
1'
1#
11
#350070
b1101001 6
0'
0#
01
#351737
1'
1#
11
#353404
b1101010 6
0'
0#
01
#355071
1'
1#
11
#356738
b1101011 6
0'
0#
01
#358405
1'
1#
11
#360072
b1101100 6
0'
0#
01
#361739
1'
1#
11
#363406
b1101101 6
0'
0#
01
#365073
1'
1#
11
#366740
b1101110 6
0'
0#
01
#368407
1'
1#
11
#370074
b1101111 6
0'
0#
01
#371741
1'
1#
11
#373408
b1110000 6
0'
0#
01
#375075
1'
1#
11
#376742
b1110001 6
0'
0#
01
#378409
1'
1#
11
#380076
b1110010 6
0'
0#
01
#381743
1'
1#
11
#383410
b1110011 6
0'
0#
01
#385077
1'
1#
11
#386744
b1110100 6
0'
0#
01
#388411
1'
1#
11
#390078
b1110101 6
0'
0#
01
#391745
1'
1#
11
#393412
b1110110 6
0'
0#
01
#395079
1'
1#
11
#396746
b1110111 6
0'
0#
01
#398413
1'
1#
11
#400080
b1111000 6
0'
0#
01
#401747
1'
1#
11
#403414
b1111001 6
0'
0#
01
#405081
1'
1#
11
#406748
b1111010 6
0'
0#
01
#408415
1'
1#
11
#410082
b1111011 6
0'
0#
01
#411749
1'
1#
11
#413416
b1111100 6
0'
0#
01
#415083
1'
1#
11
#416750
b1111101 6
0'
0#
01
#418417
1'
1#
11
#420084
b1111110 6
0'
0#
01
#421751
1'
1#
11
#423418
b1111111 6
0'
0#
01
#425085
1'
1#
11
#426752
b10000000 6
0'
0#
01
#428419
1'
1#
11
#430086
b10000001 6
0'
0#
01
#431753
1'
1#
11
#433420
b10000010 6
0'
0#
01
#435087
1'
1#
11
#436754
b10000011 6
0'
0#
01
#438421
1'
1#
11
#440088
b10000100 6
0'
0#
01
#441755
1'
1#
11
#443422
b10000101 6
0'
0#
01
#445089
1'
1#
11
#446756
b10000110 6
0'
0#
01
#448423
1'
1#
11
#450090
b10000111 6
0'
0#
01
#451757
1'
1#
11
#453424
b10001000 6
0'
0#
01
#455091
1'
1#
11
#456758
b10001001 6
0'
0#
01
#458425
1'
1#
11
#460092
b10001010 6
0'
0#
01
#461759
1'
1#
11
#463426
b10001011 6
0'
0#
01
#465093
1'
1#
11
#466760
b10001100 6
0'
0#
01
#468427
1'
1#
11
#470094
b10001101 6
0'
0#
01
#471761
1'
1#
11
#473428
b10001110 6
0'
0#
01
#475095
1'
1#
11
#476762
b10001111 6
0'
0#
01
#478429
1'
1#
11
#480096
b10010000 6
0'
0#
01
#481763
1'
1#
11
#483430
b10010001 6
0'
0#
01
#485097
1'
1#
11
#486764
b10010010 6
0'
0#
01
#488431
1'
1#
11
#490098
b10010011 6
0'
0#
01
#491765
1'
1#
11
#493432
b10010100 6
0'
0#
01
#495099
1'
1#
11
#496766
b10010101 6
0'
0#
01
#498433
1'
1#
11
#500100
b10010110 6
0'
0#
01
#501767
1'
1#
11
#503434
b10010111 6
0'
0#
01
#505101
1'
1#
11
#506768
b10011000 6
0'
0#
01
#508435
1'
1#
11
#510102
b10011001 6
0'
0#
01
#511769
1'
1#
11
#513436
b10011010 6
0'
0#
01
#515103
1'
1#
11
#516770
b10011011 6
0'
0#
01
#518437
1'
1#
11
#520104
b10011100 6
0'
0#
01
#521771
1'
1#
11
#523438
b10011101 6
0'
0#
01
#525105
1'
1#
11
#526772
b10011110 6
0'
0#
01
#528439
1'
1#
11
#530106
b10011111 6
0'
0#
01
#531773
1'
1#
11
#533440
b10100000 6
0'
0#
01
#535107
1'
1#
11
#536774
b10100001 6
0'
0#
01
#538441
1'
1#
11
#540108
b10100010 6
0'
0#
01
#541775
1'
1#
11
#543442
b10100011 6
0'
0#
01
#545109
1'
1#
11
#546776
b10100100 6
0'
0#
01
#548443
1'
1#
11
#550110
b10100101 6
0'
0#
01
#551777
1'
1#
11
#553444
b10100110 6
0'
0#
01
#555111
1'
1#
11
#556778
b10100111 6
0'
0#
01
#558445
1'
1#
11
#560112
b10101000 6
0'
0#
01
#561779
1'
1#
11
#563446
b10101001 6
0'
0#
01
#565113
1'
1#
11
#566780
b10101010 6
0'
0#
01
#568447
1'
1#
11
#570114
b10101011 6
0'
0#
01
#571781
1'
1#
11
#573448
b10101100 6
0'
0#
01
#575115
1'
1#
11
#576782
b10101101 6
0'
0#
01
#578449
1'
1#
11
#580116
b10101110 6
0'
0#
01
#581783
1'
1#
11
#583450
b10101111 6
0'
0#
01
#585117
1'
1#
11
#586784
b10110000 6
0'
0#
01
#588451
1'
1#
11
#590118
b10110001 6
0'
0#
01
#591785
1'
1#
11
#593452
b10110010 6
0'
0#
01
#595119
1'
1#
11
#596786
b10110011 6
0'
0#
01
#598453
1'
1#
11
#600120
b10110100 6
0'
0#
01
#601787
1'
1#
11
#603454
b10110101 6
0'
0#
01
#605121
1'
1#
11
#606788
b10110110 6
0'
0#
01
#608455
1'
1#
11
#610122
b10110111 6
0'
0#
01
#611789
1'
1#
11
#613456
b10111000 6
0'
0#
01
#615123
1'
1#
11
#616790
b10111001 6
0'
0#
01
#618457
1'
1#
11
#620124
b10111010 6
0'
0#
01
#621791
1'
1#
11
#623458
b10111011 6
0'
0#
01
#625125
1'
1#
11
#626792
b10111100 6
0'
0#
01
#628459
1'
1#
11
#630126
b10111101 6
0'
0#
01
#631793
1'
1#
11
#633460
b10111110 6
0'
0#
01
#635127
1'
1#
11
#636794
b10111111 6
0'
0#
01
#638461
1'
1#
11
#640128
b11000000 6
0'
0#
01
#641795
1'
1#
11
#643462
b11000001 6
0'
0#
01
#645129
1'
1#
11
#646796
b11000010 6
0'
0#
01
#648463
1'
1#
11
#650130
b11000011 6
0'
0#
01
#651797
1'
1#
11
#653464
b11000100 6
0'
0#
01
#655131
1'
1#
11
#656798
b11000101 6
0'
0#
01
#658465
1'
1#
11
#660132
b11000110 6
0'
0#
01
#661799
1'
1#
11
#663466
b11000111 6
0'
0#
01
#665133
1'
1#
11
#666800
b11001000 6
0'
0#
01
#668467
1'
1#
11
#670134
b11001001 6
0'
0#
01
#671801
1'
1#
11
#673468
b11001010 6
0'
0#
01
#675135
1'
1#
11
#676802
b11001011 6
0'
0#
01
#678469
1'
1#
11
#680136
b11001100 6
0'
0#
01
#681803
1'
1#
11
#683470
b11001101 6
0'
0#
01
#685137
1'
1#
11
#686804
b11001110 6
0'
0#
01
#688471
1'
1#
11
#690138
b11001111 6
0'
0#
01
#691805
1'
1#
11
#693472
b11010000 6
0'
0#
01
#695139
1'
1#
11
#696806
b11010001 6
0'
0#
01
#698473
1'
1#
11
#700140
b11010010 6
0'
0#
01
#701807
1'
1#
11
#703474
b11010011 6
0'
0#
01
#705141
1'
1#
11
#706808
b11010100 6
0'
0#
01
#708475
1'
1#
11
#710142
b11010101 6
0'
0#
01
#711809
1'
1#
11
#713476
b11010110 6
0'
0#
01
#715143
1'
1#
11
#716810
b11010111 6
0'
0#
01
#718477
1'
1#
11
#720144
b11011000 6
0'
0#
01
#721811
1'
1#
11
#723478
b11011001 6
0'
0#
01
#725145
1'
1#
11
#726812
b11011010 6
0'
0#
01
#728479
1'
1#
11
#730146
b11011011 6
0'
0#
01
#731813
1'
1#
11
#733480
b11011100 6
0'
0#
01
#735147
1'
1#
11
#736814
b11011101 6
0'
0#
01
#738481
1'
1#
11
#740148
b11011110 6
0'
0#
01
#741815
1'
1#
11
#743482
b11011111 6
0'
0#
01
#745149
1'
1#
11
#746816
b11100000 6
0'
0#
01
#748483
1'
1#
11
#750150
b11100001 6
0'
0#
01
#751817
1'
1#
11
#753484
b11100010 6
0'
0#
01
#755151
1'
1#
11
#756818
b11100011 6
0'
0#
01
#758485
1'
1#
11
#760152
b11100100 6
0'
0#
01
#761819
1'
1#
11
#763486
b11100101 6
0'
0#
01
#765153
1'
1#
11
#766820
b11100110 6
0'
0#
01
#768487
1'
1#
11
#770154
b11100111 6
0'
0#
01
#771821
1'
1#
11
#773488
b11101000 6
0'
0#
01
#775155
1'
1#
11
#776822
b11101001 6
0'
0#
01
#778489
1'
1#
11
#780156
b11101010 6
0'
0#
01
#781823
1'
1#
11
#783490
b11101011 6
0'
0#
01
#785157
1'
1#
11
#786824
b11101100 6
0'
0#
01
#788491
1'
1#
11
#790158
b11101101 6
0'
0#
01
#791825
1'
1#
11
#793492
b11101110 6
0'
0#
01
#795159
1'
1#
11
#796826
b11101111 6
0'
0#
01
#798493
1'
1#
11
#800160
b11110000 6
0'
0#
01
#801827
1'
1#
11
#803494
b11110001 6
0'
0#
01
#805161
1'
1#
11
#806828
b11110010 6
0'
0#
01
#808495
1'
1#
11
#810162
b11110011 6
0'
0#
01
#811829
1'
1#
11
#813496
b11110100 6
0'
0#
01
#815163
1'
1#
11
#816830
b11110101 6
0'
0#
01
#818497
1'
1#
11
#820164
b11110110 6
0'
0#
01
#821831
1'
1#
11
#823498
b11110111 6
0'
0#
01
#825165
1'
1#
11
#826832
b11111000 6
0'
0#
01
#828499
1'
1#
11
#830166
b11111001 6
0'
0#
01
#831833
1'
1#
11
#833500
b11111010 6
0'
0#
01
#835167
1'
1#
11
#836834
b11111011 6
0'
0#
01
#838501
1'
1#
11
#840168
b11111100 6
0'
0#
01
#841835
1'
1#
11
#843502
b11111101 6
0'
0#
01
#845169
1'
1#
11
#846836
b11111110 6
0'
0#
01
#848503
1'
1#
11
#850170
b11111111 6
0'
0#
01
#851837
1'
1#
11
#853504
b100000000 6
0'
0#
01
#855171
1'
1#
11
#856838
b100000001 6
0'
0#
01
#858505
1'
1#
11
#860172
b100000010 6
0'
0#
01
#861839
1'
1#
11
#863506
b100000011 6
0'
0#
01
#865173
1'
1#
11
#866840
b100000100 6
0'
0#
01
#868507
1'
1#
11
#870174
b100000101 6
0'
0#
01
#871841
1'
1#
11
#873508
b100000110 6
0'
0#
01
#875175
1'
1#
11
#876842
b100000111 6
0'
0#
01
#878509
1'
1#
11
#880176
b100001000 6
0'
0#
01
#881843
1'
1#
11
#883510
b100001001 6
0'
0#
01
#885177
1'
1#
11
#886844
b100001010 6
0'
0#
01
#888511
1'
1#
11
#890178
b100001011 6
0'
0#
01
#891845
1'
1#
11
#893512
b100001100 6
0'
0#
01
#895179
1'
1#
11
#896846
b100001101 6
0'
0#
01
#898513
1'
1#
11
#900180
b100001110 6
0'
0#
01
#901847
1'
1#
11
#903514
b100001111 6
0'
0#
01
#905181
1'
1#
11
#906848
b100010000 6
0'
0#
01
#908515
1'
1#
11
#910182
b100010001 6
0'
0#
01
#911849
1'
1#
11
#913516
b100010010 6
0'
0#
01
#915183
1'
1#
11
#916850
b100010011 6
0'
0#
01
#918517
1'
1#
11
#920184
b100010100 6
0'
0#
01
#921851
1'
1#
11
#923518
b100010101 6
0'
0#
01
#925185
1'
1#
11
#926852
b100010110 6
0'
0#
01
#928519
1'
1#
11
#930186
b100010111 6
0'
0#
01
#931853
1'
1#
11
#933520
b100011000 6
0'
0#
01
#935187
1'
1#
11
#936854
b100011001 6
0'
0#
01
#938521
1'
1#
11
#940188
b100011010 6
0'
0#
01
#941855
1'
1#
11
#943522
b100011011 6
0'
0#
01
#945189
1'
1#
11
#946856
b100011100 6
0'
0#
01
#948523
1'
1#
11
#950190
b100011101 6
0'
0#
01
#951857
1'
1#
11
#953524
b100011110 6
0'
0#
01
#955191
1'
1#
11
#956858
b100011111 6
0'
0#
01
#958525
1'
1#
11
#960192
b100100000 6
0'
0#
01
#961859
1'
1#
11
#963526
b100100001 6
0'
0#
01
#965193
1'
1#
11
#966860
b100100010 6
0'
0#
01
#968527
1'
1#
11
#970194
b100100011 6
0'
0#
01
#971861
1'
1#
11
#973528
b100100100 6
0'
0#
01
#975195
1'
1#
11
#976862
b100100101 6
0'
0#
01
#978529
1'
1#
11
#980196
b100100110 6
0'
0#
01
#981863
1'
1#
11
#983530
b100100111 6
0'
0#
01
#985197
1'
1#
11
#986864
b100101000 6
0'
0#
01
#988531
1'
1#
11
#990198
b100101001 6
0'
0#
01
#991865
1'
1#
11
#993532
b100101010 6
0'
0#
01
#995199
1'
1#
11
#996866
b100101011 6
0'
0#
01
#998533
1'
1#
11
#1000200
b100101100 6
0'
0#
01
#1001867
1'
1#
11
#1003534
b100101101 6
0'
0#
01
#1005201
1'
1#
11
#1006868
b100101110 6
0'
0#
01
#1008535
1'
1#
11
#1010202
b100101111 6
0'
0#
01
#1011869
1'
1#
11
#1013536
b100110000 6
0'
0#
01
#1015203
1'
1#
11
#1016870
b100110001 6
0'
0#
01
#1018537
1'
1#
11
#1020204
b100110010 6
0'
0#
01
#1021871
1'
1#
11
#1023538
b100110011 6
0'
0#
01
#1025205
1'
1#
11
#1026872
b100110100 6
0'
0#
01
#1028539
1'
1#
11
#1030206
b100110101 6
0'
0#
01
#1031873
1'
1#
11
#1033540
b100110110 6
0'
0#
01
#1035207
1'
1#
11
#1036874
b100110111 6
0'
0#
01
#1038541
1'
1#
11
#1040208
b100111000 6
0'
0#
01
#1041875
1'
1#
11
#1043542
b100111001 6
0'
0#
01
#1045209
1'
1#
11
#1046876
b100111010 6
0'
0#
01
#1048543
1'
1#
11
#1050210
b100111011 6
0'
0#
01
#1051877
1'
1#
11
#1053544
b100111100 6
0'
0#
01
#1055211
1'
1#
11
#1056878
b100111101 6
0'
0#
01
#1058545
1'
1#
11
#1060212
b100111110 6
0'
0#
01
#1061879
1'
1#
11
#1063546
b100111111 6
0'
0#
01
#1065213
1'
1#
11
#1066880
b101000000 6
0'
0#
01
#1068547
1'
1#
11
#1070214
b101000001 6
0'
0#
01
#1071881
1'
1#
11
#1073548
b101000010 6
0'
0#
01
#1075215
1'
1#
11
#1076882
b101000011 6
0'
0#
01
#1078549
1'
1#
11
#1080216
b101000100 6
0'
0#
01
#1081883
1'
1#
11
#1083550
b101000101 6
0'
0#
01
#1085217
1'
1#
11
#1086884
b101000110 6
0'
0#
01
#1088551
1'
1#
11
#1090218
b101000111 6
0'
0#
01
#1091885
1'
1#
11
#1093552
b101001000 6
0'
0#
01
#1095219
1'
1#
11
#1096886
b101001001 6
0'
0#
01
#1098553
1'
1#
11
#1100220
b101001010 6
0'
0#
01
#1101887
1'
1#
11
#1103554
b101001011 6
0'
0#
01
#1105221
1'
1#
11
#1106888
b101001100 6
0'
0#
01
#1108555
1'
1#
11
#1110222
b101001101 6
0'
0#
01
#1111889
1'
1#
11
#1113556
b101001110 6
0'
0#
01
#1115223
1'
1#
11
#1116890
b101001111 6
0'
0#
01
#1118557
1'
1#
11
#1120224
b101010000 6
0'
0#
01
#1121891
1'
1#
11
#1123558
b101010001 6
0'
0#
01
#1125225
1'
1#
11
#1126892
b101010010 6
0'
0#
01
#1128559
1'
1#
11
#1130226
b101010011 6
0'
0#
01
#1131893
1'
1#
11
#1133560
b101010100 6
0'
0#
01
#1135227
1'
1#
11
#1136894
b101010101 6
0'
0#
01
#1138561
1'
1#
11
#1140228
b101010110 6
0'
0#
01
#1141895
1'
1#
11
#1143562
b101010111 6
0'
0#
01
#1145229
1'
1#
11
#1146896
b101011000 6
0'
0#
01
#1148563
1'
1#
11
#1150230
b101011001 6
0'
0#
01
#1151897
1'
1#
11
#1153564
b101011010 6
0'
0#
01
#1155231
1'
1#
11
#1156898
b101011011 6
0'
0#
01
#1158565
1'
1#
11
#1160232
b101011100 6
0'
0#
01
#1161899
1'
1#
11
#1163566
b101011101 6
0'
0#
01
#1165233
1'
1#
11
#1166900
b101011110 6
0'
0#
01
#1168567
1'
1#
11
#1170234
b101011111 6
0'
0#
01
#1171901
1'
1#
11
#1173568
b101100000 6
0'
0#
01
#1175235
1'
1#
11
#1176902
b101100001 6
0'
0#
01
#1178569
1'
1#
11
#1180236
b101100010 6
0'
0#
01
#1181903
1'
1#
11
#1183570
b101100011 6
0'
0#
01
#1185237
1'
1#
11
#1186904
b101100100 6
0'
0#
01
#1188571
1'
1#
11
#1190238
b101100101 6
0'
0#
01
#1191905
1'
1#
11
#1193572
b101100110 6
0'
0#
01
#1195239
1'
1#
11
#1196906
b101100111 6
0'
0#
01
#1198573
1'
1#
11
#1200240
b101101000 6
0'
0#
01
#1201907
1'
1#
11
#1203574
b101101001 6
0'
0#
01
#1205241
1'
1#
11
#1206908
b101101010 6
0'
0#
01
#1208575
1'
1#
11
#1210242
b101101011 6
0'
0#
01
#1211909
1'
1#
11
#1213576
b101101100 6
0'
0#
01
#1215243
1'
1#
11
#1216910
b101101101 6
0'
0#
01
#1218577
1'
1#
11
#1220244
b101101110 6
0'
0#
01
#1221911
1'
1#
11
#1223578
b101101111 6
0'
0#
01
#1225245
1'
1#
11
#1226912
b101110000 6
0'
0#
01
#1228579
1'
1#
11
#1230246
b101110001 6
0'
0#
01
#1231913
1'
1#
11
#1233580
b101110010 6
0'
0#
01
#1235247
1'
1#
11
#1236914
b101110011 6
0'
0#
01
#1238581
1'
1#
11
#1240248
b101110100 6
0'
0#
01
#1241915
1'
1#
11
#1243582
b101110101 6
0'
0#
01
#1245249
1'
1#
11
#1246916
b101110110 6
0'
0#
01
#1248583
1'
1#
11
#1250250
b101110111 6
0'
0#
01
#1251917
1'
1#
11
#1253584
b101111000 6
0'
0#
01
#1255251
1'
1#
11
#1256918
b101111001 6
0'
0#
01
#1258585
1'
1#
11
#1260252
b101111010 6
0'
0#
01
#1261919
1'
1#
11
#1263586
b101111011 6
0'
0#
01
#1265253
1'
1#
11
#1266920
b101111100 6
0'
0#
01
#1268587
1'
1#
11
#1270254
b101111101 6
0'
0#
01
#1271921
1'
1#
11
#1273588
b101111110 6
0'
0#
01
#1275255
1'
1#
11
#1276922
b101111111 6
0'
0#
01
#1278589
1'
1#
11
#1280256
b110000000 6
0'
0#
01
#1281923
1'
1#
11
#1283590
b110000001 6
0'
0#
01
#1285257
1'
1#
11
#1286924
b110000010 6
0'
0#
01
#1288591
1'
1#
11
#1290258
b110000011 6
0'
0#
01
#1291925
1'
1#
11
#1293592
b110000100 6
0'
0#
01
#1295259
1'
1#
11
#1296926
b110000101 6
0'
0#
01
#1298593
1'
1#
11
#1300260
b110000110 6
0'
0#
01
#1301927
1'
1#
11
#1303594
b110000111 6
0'
0#
01
#1305261
1'
1#
11
#1306928
b110001000 6
0'
0#
01
#1308595
1'
1#
11
#1310262
b110001001 6
0'
0#
01
#1311929
1'
1#
11
#1313596
b110001010 6
0'
0#
01
#1315263
1'
1#
11
#1316930
b110001011 6
0'
0#
01
#1318597
1'
1#
11
#1320264
b110001100 6
0'
0#
01
#1321931
1'
1#
11
#1323598
b110001101 6
0'
0#
01
#1325265
1'
1#
11
#1326932
b110001110 6
0'
0#
01
#1328599
1'
1#
11
#1330266
b110001111 6
0'
0#
01
#1331933
1'
1#
11
#1333600
b110010000 6
0'
0#
01
#1335267
1'
1#
11
#1336934
b110010001 6
0'
0#
01
#1338601
1'
1#
11
#1340268
b110010010 6
0'
0#
01
#1341935
1'
1#
11
#1343602
b110010011 6
0'
0#
01
#1345269
1'
1#
11
#1346936
b110010100 6
0'
0#
01
#1348603
1'
1#
11
#1350270
b110010101 6
0'
0#
01
#1351937
1'
1#
11
#1353604
b110010110 6
0'
0#
01
#1355271
1'
1#
11
#1356938
b110010111 6
0'
0#
01
#1358605
1'
1#
11
#1360272
b110011000 6
0'
0#
01
#1361939
1'
1#
11
#1363606
b110011001 6
0'
0#
01
#1365273
1'
1#
11
#1366940
b110011010 6
0'
0#
01
#1368607
1'
1#
11
#1370274
b110011011 6
0'
0#
01
#1371941
1'
1#
11
#1373608
b110011100 6
0'
0#
01
#1375275
1'
1#
11
#1376942
b110011101 6
0'
0#
01
#1378609
1'
1#
11
#1380276
b110011110 6
0'
0#
01
#1381943
1'
1#
11
#1383610
b110011111 6
0'
0#
01
#1385277
1'
1#
11
#1386944
b110100000 6
0'
0#
01
#1388611
1'
1#
11
#1390278
b110100001 6
0'
0#
01
#1391945
1'
1#
11
#1393612
b110100010 6
0'
0#
01
#1395279
1'
1#
11
#1396946
b110100011 6
0'
0#
01
#1398613
1'
1#
11
#1400280
b110100100 6
0'
0#
01
#1401947
1'
1#
11
#1403614
b110100101 6
0'
0#
01
#1405281
1'
1#
11
#1406948
b110100110 6
0'
0#
01
#1408615
1'
1#
11
#1410282
b110100111 6
0'
0#
01
#1411949
1'
1#
11
#1413616
b110101000 6
0'
0#
01
#1415283
1'
1#
11
#1416950
b110101001 6
0'
0#
01
#1418617
1'
1#
11
#1420284
b110101010 6
0'
0#
01
#1421951
1'
1#
11
#1423618
b110101011 6
0'
0#
01
#1425285
1'
1#
11
#1426952
b110101100 6
0'
0#
01
#1428619
1'
1#
11
#1430286
b110101101 6
0'
0#
01
#1431953
1'
1#
11
#1433620
b110101110 6
0'
0#
01
#1435287
1'
1#
11
#1436954
b110101111 6
0'
0#
01
#1438621
1'
1#
11
#1440288
b110110000 6
0'
0#
01
#1441955
1'
1#
11
#1443622
b110110001 6
0'
0#
01
#1445289
1'
1#
11
#1446956
b110110010 6
0'
0#
01
#1448623
1'
1#
11
#1450290
b110110011 6
0'
0#
01
#1451957
1'
1#
11
#1453624
b110110100 6
0'
0#
01
#1455291
1'
1#
11
#1456958
b110110101 6
0'
0#
01
#1458625
1'
1#
11
#1460292
b110110110 6
0'
0#
01
#1461959
1'
1#
11
#1463626
b110110111 6
0'
0#
01
#1465293
1'
1#
11
#1466960
b110111000 6
0'
0#
01
#1468627
1'
1#
11
#1470294
b110111001 6
0'
0#
01
#1471961
1'
1#
11
#1473628
b110111010 6
0'
0#
01
#1475295
1'
1#
11
#1476962
b110111011 6
0'
0#
01
#1478629
1'
1#
11
#1480296
b110111100 6
0'
0#
01
#1481963
1'
1#
11
#1483630
b110111101 6
0'
0#
01
#1485297
1'
1#
11
#1486964
b110111110 6
0'
0#
01
#1488631
1'
1#
11
#1490298
b110111111 6
0'
0#
01
#1491965
1'
1#
11
#1493632
b111000000 6
0'
0#
01
#1495299
1'
1#
11
#1496966
b111000001 6
0'
0#
01
#1498633
1'
1#
11
#1500300
b111000010 6
0'
0#
01
#1501967
1'
1#
11
